%YAML 1.1
%TAG !u! tag:unity3d.com,2011:
--- !u!1 &2480754832243756696
GameObject:
  m_ObjectHideFlags: 0
  m_CorrespondingSourceObject: {fileID: 0}
  m_PrefabInstance: {fileID: 0}
  m_PrefabAsset: {fileID: 0}
  serializedVersion: 6
  m_Component:
  - component: {fileID: 593988075846929731}
  m_Layer: 0
  m_Name: SmoothHole
  m_TagString: Untagged
  m_Icon: {fileID: 0}
  m_NavMeshLayer: 0
  m_StaticEditorFlags: 0
  m_IsActive: 1
--- !u!4 &593988075846929731
Transform:
  m_ObjectHideFlags: 0
  m_CorrespondingSourceObject: {fileID: 0}
  m_PrefabInstance: {fileID: 0}
  m_PrefabAsset: {fileID: 0}
  m_GameObject: {fileID: 2480754832243756696}
  m_LocalRotation: {x: 0, y: 0, z: 0, w: 1}
  m_LocalPosition: {x: 0, y: 0, z: 0}
  m_LocalScale: {x: 1.5, y: 1.5, z: 1.5}
  m_Children:
  - {fileID: 8664091277896191242}
  m_Father: {fileID: 0}
  m_RootOrder: 0
  m_LocalEulerAnglesHint: {x: 0, y: 0, z: 0}
--- !u!64 &4126035094545475685
MeshCollider:
  m_ObjectHideFlags: 0
  m_CorrespondingSourceObject: {fileID: 0}
  m_PrefabInstance: {fileID: 0}
  m_PrefabAsset: {fileID: 0}
  m_GameObject: {fileID: 5649291585444577049}
  m_Material: {fileID: 0}
  m_IsTrigger: 0
  m_Enabled: 0
  serializedVersion: 3
  m_Convex: 0
  m_CookingOptions: 14
  m_Mesh: {fileID: -2432090755550338912, guid: a493265554e014aae9c3dff5d5b0cf94, type: 3}
--- !u!1001 &4415706671063082512
PrefabInstance:
  m_ObjectHideFlags: 0
  serializedVersion: 2
  m_Modification:
    m_TransformParent: {fileID: 593988075846929731}
    m_Modifications:
    - target: {fileID: -927199367670048503, guid: a493265554e014aae9c3dff5d5b0cf94,
        type: 3}
      propertyPath: m_Name
      value: hole
      objectReference: {fileID: 0}
    - target: {fileID: 2534866581884222612, guid: a493265554e014aae9c3dff5d5b0cf94,
        type: 3}
      propertyPath: m_Name
      value: mesh
      objectReference: {fileID: 0}
    - target: {fileID: -4216859302048453862, guid: a493265554e014aae9c3dff5d5b0cf94,
        type: 3}
      propertyPath: m_LocalPosition.x
      value: 0
      objectReference: {fileID: 0}
    - target: {fileID: -4216859302048453862, guid: a493265554e014aae9c3dff5d5b0cf94,
        type: 3}
      propertyPath: m_LocalPosition.y
      value: -0.431
      objectReference: {fileID: 0}
    - target: {fileID: -4216859302048453862, guid: a493265554e014aae9c3dff5d5b0cf94,
        type: 3}
      propertyPath: m_LocalPosition.z
      value: 0
      objectReference: {fileID: 0}
    - target: {fileID: -4216859302048453862, guid: a493265554e014aae9c3dff5d5b0cf94,
        type: 3}
      propertyPath: m_LocalRotation.x
      value: 0
      objectReference: {fileID: 0}
    - target: {fileID: -4216859302048453862, guid: a493265554e014aae9c3dff5d5b0cf94,
        type: 3}
      propertyPath: m_LocalRotation.y
      value: 0
      objectReference: {fileID: 0}
    - target: {fileID: -4216859302048453862, guid: a493265554e014aae9c3dff5d5b0cf94,
        type: 3}
      propertyPath: m_LocalRotation.z
      value: 0
      objectReference: {fileID: 0}
    - target: {fileID: -4216859302048453862, guid: a493265554e014aae9c3dff5d5b0cf94,
        type: 3}
      propertyPath: m_LocalRotation.w
      value: 1
      objectReference: {fileID: 0}
    - target: {fileID: -4216859302048453862, guid: a493265554e014aae9c3dff5d5b0cf94,
        type: 3}
      propertyPath: m_RootOrder
      value: 0
      objectReference: {fileID: 0}
    - target: {fileID: -4216859302048453862, guid: a493265554e014aae9c3dff5d5b0cf94,
        type: 3}
      propertyPath: m_LocalEulerAnglesHint.x
      value: 0
      objectReference: {fileID: 0}
    - target: {fileID: -4216859302048453862, guid: a493265554e014aae9c3dff5d5b0cf94,
        type: 3}
      propertyPath: m_LocalEulerAnglesHint.y
      value: 0
      objectReference: {fileID: 0}
    - target: {fileID: -4216859302048453862, guid: a493265554e014aae9c3dff5d5b0cf94,
        type: 3}
      propertyPath: m_LocalEulerAnglesHint.z
      value: 0
      objectReference: {fileID: 0}
    - target: {fileID: -2416733968201007103, guid: a493265554e014aae9c3dff5d5b0cf94,
        type: 3}
      propertyPath: m_Materials.Array.data[0]
      value: 
      objectReference: {fileID: 2100000, guid: 22d59a9e5ff0d44a18f593bac9c76380, type: 2}
    m_RemovedComponents: []
  m_SourcePrefab: {fileID: 100100000, guid: a493265554e014aae9c3dff5d5b0cf94, type: 3}
--- !u!1 &5649291585444577049 stripped
GameObject:
  m_CorrespondingSourceObject: {fileID: -927199367670048503, guid: a493265554e014aae9c3dff5d5b0cf94,
    type: 3}
  m_PrefabInstance: {fileID: 4415706671063082512}
  m_PrefabAsset: {fileID: 0}
--- !u!4 &8664091277896191242 stripped
Transform:
  m_CorrespondingSourceObject: {fileID: -4216859302048453862, guid: a493265554e014aae9c3dff5d5b0cf94,
    type: 3}
  m_PrefabInstance: {fileID: 4415706671063082512}
  m_PrefabAsset: {fileID: 0}
