%YAML 1.1
%TAG !u! tag:unity3d.com,2011:
--- !u!114 &11400000
MonoBehaviour:
  m_ObjectHideFlags: 0
  m_CorrespondingSourceObject: {fileID: 0}
  m_PrefabInstance: {fileID: 0}
  m_PrefabAsset: {fileID: 0}
  m_GameObject: {fileID: 0}
  m_Enabled: 1
  m_EditorHideFlags: 0
  m_Script: {fileID: 11500000, guid: 46e13612719f14d308e2b705fd417816, type: 3}
  m_Name: Level13
  m_EditorClassIdentifier: 
  stagesPrefabs:
  - {fileID: 370694633102440768, guid: ce979754daa0f4ea096c1dd64bb32c3d, type: 3}
  - {fileID: 370694633102440768, guid: ee618dbe7d2444c5193cdffe63d31ee1, type: 3}
  - {fileID: 370694633102440768, guid: 02527401149bf4aecb725abd9bccdc1b, type: 3}
  - {fileID: 370694633102440768, guid: 83a0932c6eb91401289c9b5b7b1bb4c1, type: 3}
