%YAML 1.1
%TAG !u! tag:unity3d.com,2011:
--- !u!114 &11400000
MonoBehaviour:
  m_ObjectHideFlags: 0
  m_CorrespondingSourceObject: {fileID: 0}
  m_PrefabInstance: {fileID: 0}
  m_PrefabAsset: {fileID: 0}
  m_GameObject: {fileID: 0}
  m_Enabled: 1
  m_EditorHideFlags: 0
  m_Script: {fileID: 11500000, guid: 46e13612719f14d308e2b705fd417816, type: 3}
  m_Name: Level11
  m_EditorClassIdentifier: 
  stagesPrefabs:
  - {fileID: 370694633102440768, guid: e3f0545f5817847829c122051a4de3ed, type: 3}
  - {fileID: 370694633102440768, guid: bbb9387bc26834c6db93152bfb43308c, type: 3}
  - {fileID: 370694633102440768, guid: a7a4a25a954f24dddaf99d0feea173ba, type: 3}
  - {fileID: 370694633102440768, guid: a64e7db1602794c3d9963afa816b1e25, type: 3}
