%YAML 1.1
%TAG !u! tag:unity3d.com,2011:
--- !u!1 &3821676477078151207
GameObject:
  m_ObjectHideFlags: 0
  m_CorrespondingSourceObject: {fileID: 0}
  m_PrefabInstance: {fileID: 0}
  m_PrefabAsset: {fileID: 0}
  serializedVersion: 6
  m_Component:
  - component: {fileID: 5524400976895769420}
  - component: {fileID: 4563189315424002004}
  m_Layer: 0
  m_Name: AdsIntegrationService
  m_TagString: Untagged
  m_Icon: {fileID: 0}
  m_NavMeshLayer: 0
  m_StaticEditorFlags: 0
  m_IsActive: 1
--- !u!4 &5524400976895769420
Transform:
  m_ObjectHideFlags: 0
  m_CorrespondingSourceObject: {fileID: 0}
  m_PrefabInstance: {fileID: 0}
  m_PrefabAsset: {fileID: 0}
  m_GameObject: {fileID: 3821676477078151207}
  m_LocalRotation: {x: 0, y: 0, z: 0, w: 1}
  m_LocalPosition: {x: 0, y: 0, z: 0}
  m_LocalScale: {x: 1, y: 1, z: 1}
  m_Children: []
  m_Father: {fileID: 0}
  m_RootOrder: 0
  m_LocalEulerAnglesHint: {x: 0, y: 0, z: 0}
--- !u!114 &4563189315424002004
MonoBehaviour:
  m_ObjectHideFlags: 0
  m_CorrespondingSourceObject: {fileID: 0}
  m_PrefabInstance: {fileID: 0}
  m_PrefabAsset: {fileID: 0}
  m_GameObject: {fileID: 3821676477078151207}
  m_Enabled: 1
  m_EditorHideFlags: 0
  m_Script: {fileID: 11500000, guid: 424c542d6ae944269bf84c49af2e450d, type: 3}
  m_Name: 
  m_EditorClassIdentifier: 
  _showRewardedButton: {fileID: 0}
  _showInterstitialButton: {fileID: 0}
  _isRewardedAvailable: {fileID: 0}
  _lastPlacement: {fileID: 0}
  _bannerSize: {fileID: 0}
  _bannerPosition: {fileID: 0}
