%YAML 1.1
%TAG !u! tag:unity3d.com,2011:
--- !u!1 &5746481557945418796
GameObject:
  m_ObjectHideFlags: 0
  m_CorrespondingSourceObject: {fileID: 0}
  m_PrefabInstance: {fileID: 0}
  m_PrefabAsset: {fileID: 0}
  serializedVersion: 6
  m_Component:
  - component: {fileID: 6761050482482338595}
  - component: {fileID: 3426959611292842661}
  m_Layer: 0
  m_Name: EffectsMaanger
  m_TagString: Untagged
  m_Icon: {fileID: 0}
  m_NavMeshLayer: 0
  m_StaticEditorFlags: 0
  m_IsActive: 1
--- !u!4 &6761050482482338595
Transform:
  m_ObjectHideFlags: 0
  m_CorrespondingSourceObject: {fileID: 0}
  m_PrefabInstance: {fileID: 0}
  m_PrefabAsset: {fileID: 0}
  m_GameObject: {fileID: 5746481557945418796}
  m_LocalRotation: {x: 0, y: 0, z: 0, w: 1}
  m_LocalPosition: {x: 0, y: 0, z: 0}
  m_LocalScale: {x: 1, y: 1, z: 1}
  m_Children: []
  m_Father: {fileID: 0}
  m_RootOrder: 0
  m_LocalEulerAnglesHint: {x: 0, y: 0, z: 0}
--- !u!114 &3426959611292842661
MonoBehaviour:
  m_ObjectHideFlags: 0
  m_CorrespondingSourceObject: {fileID: 0}
  m_PrefabInstance: {fileID: 0}
  m_PrefabAsset: {fileID: 0}
  m_GameObject: {fileID: 5746481557945418796}
  m_Enabled: 1
  m_EditorHideFlags: 0
  m_Script: {fileID: 11500000, guid: 156c893b5192e4c61af3368adce48826, type: 3}
  m_Name: 
  m_EditorClassIdentifier: 
  effectsInfos:
  - prefab: {fileID: 4362476075838019900, guid: d108fae51f3b14b1d9dd06e625461d97,
      type: 3}
    effectType: 1
  - prefab: {fileID: 4918725522284688497, guid: 62b616c57614c4ec48173e9275dd8d13,
      type: 3}
    effectType: 2
  - prefab: {fileID: 2246101365861861810, guid: 5960cfb1c18964a77bb9e2b5e2706eef,
      type: 3}
    effectType: 3
  - prefab: {fileID: 4968416778114276515, guid: ff175c697f48e4d52a060b82a493642b,
      type: 3}
    effectType: 4
